1 10 20
100 200 125
201 210 89
900 1000 174
768781 630603 504
34763 309498 443
275811 857460 525
260580 677404 509
149848 535277 470
222950 199855 386
752948 504906 509
554871 705652 509
48183 692 324
476561 763490 509
744819 517689 509
586606 897686 525
909658 501260 525
105942 944245 525
833100 752658 468
506342 95101 449
36683 400543 443
462934 270455 449
198323 854689 525
614604 432300 470
6478 309163 443
705212 461498 509
452508 104988 449
753351 26794 509
682761 370332 509
163985 242690 443
757849 247278 509
668776 80714 509
310497 290649 371
792628 579597 509
566848 728982 509
896838 342432 525
933164 55807 525
723415 748953 424
625640 362976 470
261293 712752 509
488945 955381 525
698948 891667 525
286411 591069 470
250477 590736 470
632727 916639 525
154801 454034 449
576731 106330 470
127657 618505 470
138843 922854 525
557509 326684 470
345679 424322 449
145762 15573 375
679049 22280 509
703261 926802 525
33924 28355 285
346454 851241 525
423279 195555 449
990270 596110 525
412839 276590 449
627315 1437 509
944493 268838 525
489203 14933 449
299905 758431 509
532391 309278 470
344013 17902 443
483052 928396 525
159038 630378 509
26250 742287 509
921965 80446 525
623510 32429 470
85446 295923 443
790225 670299 504
785066 823080 468
609523 325007 470
601286 364731 470
175753 11581 383
883042 698609 525
51434 90692 351
706207 251106 509
209000 886730 525
178618 861118 525
663403 448078 509
841512 971203 507
541819 549616 452
216647 564092 470
497207 820581 509
707451 466935 509
787550 830423 468
16492 688777 509
918655 643758 525
434888 109660 449
505725 890148 525
813255 859167 525
907130 990931 507
327614 707446 509
280818 799352 509
306819 585120 470
527449 681648 509
691664 558673 509
744905 426802 509
131065 290109 443
140965 160165 383
380427 657127 509
802225 770832 468