958208 959454 321
882589 885723 370
272438 280962 389
247131 264941 407
152989 140869 375
308489 306896 371
254652 247929 350
187289 201453 360
59607 72051 335
787069 768111 437
564673 556271 359
442852 429540 400
603286 601562 385
212068 225240 386
225164 228895 368
20851 17799 274
293942 299252 371
131442 125281 344
483119 471349 413
475287 459472 444
511188 515959 470
949323 969191 414
698499 698181 305
569886 554954 421
120990 115838 336
579220 570330 390
81233 90239 333
461385 478211 413
573962 587846 434
942331 925296 507
842060 842159 251
915558 904298 476
645984 642480 354
244445 253481 350
938116 958030 507
583813 587541 372
544536 544159 302
694451 694178 212
410253 425760 418
324575 344103 366
743914 730752 424
894280 890778 326
642727 660366 429
759282 757682 362
22710 40536 324
671688 655350 442
606336 610802 403
452774 438575 400
968375 985986 458
910538 913395 401
500051 508471 426
812848 828899 450
299709 286275 389
677853 675537 385
560923 568710 421
332237 334255 335
393318 374439 436
290686 272134 389
102076 84097 341
799708 799872 269
55326 71650 335
95324 77791 338
733587 740389 424
555701 555566 284
296893 286027 389
499873 512626 470
686336 689138 398
335028 316042 384
364594 353862 410
31316 47347 324
356848 356108 348
244776 264659 407
440760 448292 369
72026 74423 294
138552 153249 375
84040 101011 341
371057 376075 361
201409 207866 373
390186 372874 436
88787 69414 351
761899 749617 424
982386 976342 427
740206 759903 424
9393 19269 279
846218 832542 525
806427 822135 450
946382 939783 383
639916 659891 429
483403 485405 320
467135 454108 444
340092 338974 366
321276 336002 384
589707 608013 403
843885 838308 388
803153 795134 468
946195 962055 414
331676 320959 384
142920 130727 375
129700 134536 344
700561 709601 504
56579 70288 335
847947 867596 419
233499 239312 381
291313 272151 389
611195 606698 403
759162 749456 424
183884 171464 365
138225 129589 344
768529 780273 437
372970 360863 392
648918 641044 416
280770 292167 389
601684 593789 403
934262 946852 507
637285 622148 509
381491 362900 423
604496 596613 403
474336 486614 413
301338 305224 340
654670 651558 385
489397 470940 413
684147 676661 380
936376 952056 507
511024 519010 470
826660 843231 525
708340 721855 411
938722 939856 507
393516 377445 436
400413 413270 449
406323 423281 449
284276 280642 358
810936 815499 375
914914 917626 383
205300 189285 360
78937 89882 333
965872 958432 414
876925 883666 401
727226 707560 411
699737 689214 442
824882 841882 525
8251 17278 276
574717 564631 421
139190 128350 344
849119 836266 525
887612 899131 401
621457 614408 447
955677 954166 383
1 2 2
1 11 20
2 900 179
999998 999999 259
89 2 116
34 95 116
45 21 112
345 3500 217
500 1500 182
5 5 6
