1 10 20
100 200 125
201 210 89
900 1000 174
11 39 112
41 57 113
19 84 116
62 85 116
4 100 119
67 61 108
97 49 116
52 85 116
79 37 116
21 16 21
87 44 116
79 8 116
86 3 116
70 19 113
75 98 119
29 22 112
25 97 116
32 44 110
55 100 119
15 63 113
10 73 113
83 28 116
71 39 113
74 57 116
74 82 36
34 24 112
78 6 116
46 100 119
78 4 116
38 61 113
48 34 110
24 76 116
17 73 113
27 59 113
3 43 112
46 91 116
33 32 6
66 44 113
23 37 112
69 23 113
68 3 113
98 98 26
71 25 113
45 16 112
88 80 111
1 60 113
94 8 116
65 65 28
33 29 107
37 3 112
52 93 116
89 9 116
3 78 116
27 27 112
34 11 112
45 16 112
11 41 112
23 25 16
57 20 113
64 75 116
43 78 116
61 47 113
95 19 116
82 73 116
52 19 112
18 39 112
97 1 116
66 5 113
54 60 113
63 88 116
94 34 116
64 65 7
49 78 116
73 100 119
22 86 116
53 78 116
92 36 116
30 42 110
3 80 116
65 98 119
27 58 113
20 8 21
25 76 116
91 57 116
8 22 21
14 58 113
48 22 112
100 18 119
10 34 112
31 60 113
849 586 171
696 31 145
512 509 62
478 273 144
925 965 174
323 644 144
805 215 171
338 321 144
704 920 179
473 804 171
398 617 142
191 149 125
449 279 144
741 577 171
637 49 144
2 266 128
284 312 118
269 86 128
115 515 144
152 854 171
771 305 171
129 337 144
400 613 142
119 529 144
378 791 171
166 326 131
645 676 145
382 312 144
610 949 179
961 87 179
2812 5785 238
7085 8288 252
9256 8884 247
410 7961 262
2202 63 182
2205 3328 217
8627 473 262
959 5176 238
8247 3748 262
3348 6940 262
7990 322 262
9173 3415 262
4849 1675 238
2443 3147 217
8596 1906 262
3540 4736 238
5565 3324 238
9442 1892 262
1376 4008 238
6594 2622 262
5329 4142 215
5766 6798 262
4367 3533 238
1091 6593 262
2036 4523 238
1879 665 182
9455 9626 198
2821 1844 209
2292 4453 238
9077 5205 262
